﻿TeamName: 01B                  Rank: 1                    KillScore: 7                    RankScore: 12                   TotalScore: 19                  
NAME: AmandaA0915F         ID: 10000190             KILL: 0                   
NAME: Leticia3858P         ID: 10000097             KILL: 0                   
NAME: LoiraFr1905A         ID: 10000062             KILL: 7                   
NAME: LuaraBr2049D         ID: 10000073             KILL: 0                   
TeamName: time6A               Rank: 2                    KillScore: 0                    RankScore: 9                    TotalScore: 9                   
NAME: time6jog3            ID: 10000049             KILL: 0                   
NAME: time6jog1            ID: 10000041             KILL: 0                   
NAME: time6jog2            ID: 10000047             KILL: 0                   
NAME: tm6jogador6          ID: 10000045             KILL: 0                   
TeamName: time4                Rank: 3                    KillScore: 5                    RankScore: 8                    TotalScore: 13                  
NAME: Tm4jg6               ID: 10000036             KILL: 5                   
NAME: Tm4jg5               ID: 10000029             KILL: 0                   
NAME: BeijosS0723B         ID: 10000165             KILL: 0                   
NAME: Carol120724G         ID: 10000163             KILL: 0                   
TeamName: A5                   Rank: 4                    KillScore: 3                    RankScore: 7                    TotalScore: 10                  
NAME: time5jog2            ID: 10000018             KILL: 3                   
NAME: time5jog1            ID: 10000003             KILL: 0                   
NAME: time5jog5            ID: 10000012             KILL: 0                   
NAME: time5jog4            ID: 10000016             KILL: 0                   
TeamName: time3                Rank: 5                    KillScore: 3                    RankScore: 6                    TotalScore: 9                   
NAME: time3jog2            ID: 10000017             KILL: 3                   
NAME: time3jog6            ID: 10000010             KILL: 0                   
NAME: time3jog5            ID: 10000005             KILL: 0                   
NAME: time3jog1            ID: 10000013             KILL: 0                   
TeamName: time2A               Rank: 6                    KillScore: 2                    RankScore: 5                    TotalScore: 7                   
NAME: RenataV2701A         ID: 10000040             KILL: 2                   
NAME: Morango4236A         ID: 10000050             KILL: 0                   
NAME: MessiPr2740T         ID: 10000042             KILL: 0                   
NAME: YingMis2356V         ID: 10000035             KILL: 0                   
TeamName: 04B                  Rank: 7                    KillScore: 1                    RankScore: 4                    TotalScore: 5                   
NAME: T10J5                ID: 10000152             KILL: 0                   
NAME: T10J2                ID: 10000151             KILL: 0                   
NAME: Tm10Jg4              ID: 10000054             KILL: 1                   
NAME: T10J1                ID: 10000150             KILL: 0                   
TeamName: 03B                  Rank: 8                    KillScore: 1                    RankScore: 3                    TotalScore: 4                   
NAME: time9jog4            ID: 10000060             KILL: 1                   
NAME: time9j6              ID: 10000067             KILL: 0                   
NAME: time9jog2            ID: 10000072             KILL: 0                   
NAME: time9jog1            ID: 10000064             KILL: 0                   
TeamName: time5b               Rank: 9                    KillScore: 0                    RankScore: 2                    TotalScore: 2                   
NAME: time11jog2           ID: 10000052             KILL: 0                   
NAME: time11jog4           ID: 10000055             KILL: 0                   
NAME: time11jog3           ID: 10000086             KILL: 0                   
NAME: ZueiraT2306K         ID: 10000083             KILL: 0                   
TeamName: Time1A               Rank: 10                   KillScore: 3                    RankScore: 1                    TotalScore: 4                   
NAME: M.Tchowke            ID: 10000019             KILL: 3                   
NAME: Medonça0128Y         ID: 10000011             KILL: 0                   
NAME: T1J2                 ID: 10000162             KILL: 0                   
NAME: LegalSa5852N         ID: 10000007             KILL: 0                   
TeamName: 02B                  Rank: 11                   KillScore: 1                    RankScore: 0                    TotalScore: 1                   
NAME: Laranjr2104B         ID: 10000076             KILL: 1                   
NAME: MagdaLa2102N         ID: 10000075             KILL: 0                   
NAME: JajeiWa3730O         ID: 10000096             KILL: 0                   
NAME: LeãoSil2114E         ID: 10000079             KILL: 0                   
TeamName: time6b               Rank: 12                   KillScore: 0                    RankScore: 0                    TotalScore: 0                   
NAME: tm12jogador5         ID: 10000091             KILL: 0                   
NAME: Time12jog3           ID: 10000071             KILL: 0                   
NAME: Time12jog1           ID: 10000089             KILL: 0                   
NAME: Time12jog2           ID: 10000095             KILL: 0                   
